{
  "project_info": {
    "project_number": "1027367612616",
    "firebase_url": "https://myproject-a7d5d.firebaseio.com",
    "project_id": "myproject-a7d5d",
    "storage_bucket": "myproject-a7d5d.appspot.com"
  },
  "client": [
    {
      "client_info": {
        "mobilesdk_app_id": "1:1027367612616:android:ee086800f80d3b492375fd",
        "android_client_info": {
          "package_name": "com.example.a3ways"
        }
      },
      "oauth_client": [
        {
          "client_id": "1027367612616-j0soudbo0nr1u19pjatmt2q38vp9gnah.apps.googleusercontent.com",
          "client_type": 1,
          "android_info": {
            "package_name": "com.example.a3ways",
            "certificate_hash": "d85cbb9efaef51fe1465b1f35d925853f0045220"
          }
        },
        {
          "client_id": "1027367612616-dl72k6apj4m9khdp9sre0si9hh45f8di.apps.googleusercontent.com",
          "client_type": 3
        }
      ],
      "api_key": [
        {
          "current_key": "AIzaSyA19svC7bYMw3NoBQhWeQo0fsyOgtNSbSk"
        }
      ],
      "services": {
        "appinvite_service": {
          "other_platform_oauth_client": [
            {
              "client_id": "1027367612616-dl72k6apj4m9khdp9sre0si9hh45f8di.apps.googleusercontent.com",
              "client_type": 3
            }
          ]
        }
      }
    }
  ],
  "configuration_version": "1"
}